<svg width="22" height="24" viewBox="0 0 22 24" fill="none" xmlns="http://www.w3.org/2000/svg">
<circle cx="11" cy="12" r="11" fill="#B1B4BA"/>
<path d="M10.0469 10.6094H11.1328C11.8151 10.599 12.3516 10.4193 12.7422 10.0703C13.1328 9.72135 13.3281 9.25 13.3281 8.65625C13.3281 7.32292 12.6641 6.65625 11.3359 6.65625C10.7109 6.65625 10.2109 6.83594 9.83594 7.19531C9.46615 7.54948 9.28125 8.02083 9.28125 8.60938H7.83594C7.83594 7.70833 8.16406 6.96094 8.82031 6.36719C9.48177 5.76823 10.3203 5.46875 11.3359 5.46875C12.4089 5.46875 13.25 5.7526 13.8594 6.32031C14.4688 6.88802 14.7734 7.67708 14.7734 8.6875C14.7734 9.18229 14.612 9.66146 14.2891 10.125C13.9714 10.5885 13.5365 10.9349 12.9844 11.1641C13.6094 11.362 14.0911 11.6901 14.4297 12.1484C14.7734 12.6068 14.9453 13.1667 14.9453 13.8281C14.9453 14.849 14.612 15.6589 13.9453 16.2578C13.2786 16.8568 12.4115 17.1562 11.3438 17.1562C10.276 17.1562 9.40625 16.8672 8.73438 16.2891C8.06771 15.7109 7.73438 14.9479 7.73438 14H9.1875C9.1875 14.599 9.38281 15.0781 9.77344 15.4375C10.1641 15.7969 10.6875 15.9766 11.3438 15.9766C12.0417 15.9766 12.5755 15.7943 12.9453 15.4297C13.3151 15.0651 13.5 14.5417 13.5 13.8594C13.5 13.1979 13.2969 12.6901 12.8906 12.3359C12.4844 11.9818 11.8984 11.7995 11.1328 11.7891H10.0469V10.6094Z" fill="white"/>
</svg>
