<svg
    xmlns="http://www.w3.org/2000/svg"
    viewBox="0 0 80 80"
    id="vector">
    <path
        id="path"
        d="M 40 0 C 29.395 0 19.214 4.217 11.716 11.716 C 4.217 19.214 0 29.395 0 40 C 0 50.605 4.217 60.786 11.716 68.284 C 19.214 75.783 29.395 80 40 80 C 50.605 80 60.786 75.783 68.284 68.284 C 75.783 60.786 80 50.605 80 40 C 80 29.395 75.783 19.214 68.284 11.716 C 60.786 4.217 50.605 0 40 0 Z"
        fill="#e5008c"
        stroke-width="1"/>
    <g id="group">
        <path
            id="path_1"
            d="M 40.7 62.9 C 39.5 62.2 39.1 61.2 39.1 59.8 L 39.1 47.9 L 39.1 47 C 39.1 46.7 39.1 46.3 38.7 46.3 C 38.3 46.3 38.3 46.7 38.3 47 L 38.3 52.4 C 37.7 52.2 37.6 51.7 37.5 51.3 L 34.5 44.4 C 34.2 43.7 33.8 43.1 33 42.8 C 31.8 42.3 31.4 41.4 31.6 40 C 32.1 37.4 32.6 34.9 32.9 32.3 C 32.7 32.7 32.6 33.2 32.4 33.6 C 31.9 35 31.5 36.5 30.9 37.8 C 30 39.6 30.2 41.3 31 43 C 31.2 43.5 31.3 43.8 32 43.7 C 32.7 43.6 33.1 44.1 33.3 44.7 L 37.8 55.2 C 38.3 56.3 38 57 36.8 57.4 C 35.4 57.9 33.9 58.4 32.5 58.8 C 31.4 59.1 30.7 58.8 30.4 57.6 C 29.5 53.9 28.7 50.2 27.8 46.4 C 27.7 45.8 27.7 45.2 28.3 44.8 C 28.8 44.5 28.8 44.1 28.6 43.6 C 28.2 42.4 28 41.2 26.7 40.5 C 25.9 40.1 25.9 39.1 26.1 38.3 C 27.6 34 29.1 29.7 30.7 25.4 C 31.5 23.2 33.1 21.9 35.7 22.1 C 37.5 22.2 39.3 22.2 41.2 22.1 C 44.2 21.9 45.8 23.5 46.7 26 C 47.7 28.8 48.6 31.5 49.6 34.3 C 50 35.5 50.5 36.8 50.9 38 C 51.3 39.1 51.2 40 50.3 40.8 C 49.4 41.6 49.7 43.7 50.7 44.4 C 51.4 44.8 51.5 45.5 51.5 46.1 C 51.8 48.9 52 51.8 52.2 54.6 C 52.3 55.4 52.4 56.2 52.4 57 C 52.4 58.2 51.9 58.7 50.8 58.8 L 46.2 58.8 C 45 58.8 44.5 58.2 44.6 57 C 44.9 53.3 45.3 49.5 45.6 45.8 C 45.7 45 46 44.4 46.8 44.2 C 47.1 44.1 47.3 44 47.3 43.7 C 47.2 42.4 47.5 41.1 47 39.9 C 46 37.4 45.2 34.8 44.1 32.3 C 44.6 35.3 45.2 38.3 45.7 41.3 C 45.9 42.3 46 43.1 45 43.9 C 44.2 44.6 43.9 45.9 43.8 46.9 C 43.8 50.1 43.6 53.3 43.3 56.6 C 43.2 57.4 43.3 58.2 43.6 59 C 44.2 60.5 43.6 61.8 42.1 62.8 C 41.9 62.9 41.3 62.9 40.7 62.9 Z M 40 12.8 C 41.1 13.4 42.2 14.2 42.7 15.5 C 43.4 17.6 42.5 19.9 40.4 20.8 C 38.5 21.7 36.2 20.9 35.1 19.1 C 34 17.2 34.5 14.8 36.3 13.5 C 36.6 13.3 37 13.1 37.3 12.8 L 40 12.8 Z"
            fill="#ffffff"
            stroke-width="1"/>
        <path
            id="path_2"
            d="M 34.9 62.9 C 34.6 62.6 34.2 62.4 33.9 62.1 C 32.9 60.9 33.2 60 34.6 59.6 C 35.6 59.3 36.6 59 37.5 58.6 C 37.9 58.5 38.2 58.5 38.3 59 C 38.4 60.6 38.3 62.1 36.7 62.9 L 34.9 62.9 Z M 28.3 54 C 28 55.4 27.7 56.8 27.2 58.3 C 27 59 26.3 59.3 25.6 59 C 24 58.5 22.4 58 20.8 57.4 C 19.8 57.1 19.6 56.3 20 55.4 C 21.5 51.8 23.1 48.2 24.6 44.7 C 24.9 44.1 25.3 43.8 26 43.8 C 26.2 43.8 26.4 43.9 26.6 43.7 C 26.8 43.6 26.8 43 27.2 43.3 C 27.5 43.6 27.5 44 27.2 44.3 C 26.4 45.2 26.5 46.2 26.8 47.3 C 27.2 49.1 27.7 51 28.1 52.8 C 28.2 53.2 28.3 53.5 28.3 54 Z M 51.2 42.3 C 51.6 42.3 51.8 42.8 52.2 42.6 C 53.2 42.1 53.8 42.7 54.4 43.4 L 61.6 51.5 C 62.6 52.6 62.5 53.3 61.3 54.2 C 60.2 55 59.2 55.8 58.1 56.6 C 56.8 57.6 56.3 57.3 55.3 56 C 53.5 53.7 53.1 51.1 53 48.3 C 53 47.4 52.8 46.5 52.8 45.6 C 52.7 44.8 52.4 44.1 51.7 43.6 C 51.2 43.3 51 42.9 51.2 42.3 Z"
            fill="#ffffff"
            stroke-width="1"/>
    </g>
</svg>
