<svg
    xmlns="http://www.w3.org/2000/svg"
    viewBox="0 0 128 128"
    id="vector">
    <path
        id="path"
        d="M 64 0 C 47.033 0 30.743 6.747 18.745 18.745 C 6.747 30.743 0 47.033 0 64 C 0 80.967 6.747 97.257 18.745 109.255 C 30.743 121.253 47.033 128 64 128 C 80.967 128 97.257 121.253 109.255 109.255 C 121.253 97.257 128 80.967 128 64 C 128 47.033 121.253 30.743 109.255 18.745 C 97.257 6.747 80.967 0 64 0 Z"
        fill="#e5008c"
        stroke-width="1"/>
    <g id="group">
        <path
            id="path_1"
            d="M 41.9 104 C 49.6 104 55.8 97.8 55.8 90.1 C 55.8 86.8 54.7 83.7 52.6 81.2 L 55.5 78.3 L 53.7 76.5 L 50.8 79.4 C 44.9 74.5 36.1 75.3 31.2 81.2 C 26.3 87.1 27.1 95.9 33 100.8 C 35.5 102.9 38.7 104 41.9 104 Z M 41.9 78.7 C 48.2 78.7 53.3 83.8 53.3 90.1 C 53.3 96.4 48.2 101.5 41.9 101.5 C 35.6 101.5 30.5 96.4 30.5 90.1 C 30.5 83.8 35.6 78.7 41.9 78.7 Z M 41.9 55.9 C 45.2 55.9 48.3 54.8 50.8 52.7 L 53.7 55.6 L 55.5 53.8 L 52.6 50.9 C 57.5 45 56.7 36.2 50.8 31.3 C 44.9 26.4 36.1 27.1 31.2 33 C 26.3 38.9 27.1 47.7 33 52.6 C 35.5 54.7 38.7 55.9 41.9 55.9 Z M 41.9 30.5 C 48.2 30.5 53.3 35.6 53.3 41.9 C 53.3 48.2 48.2 53.3 41.9 53.3 C 35.6 53.3 30.5 48.2 30.5 41.9 C 30.5 35.6 35.6 30.5 41.9 30.5 Z M 79.9 66 C 79.9 58.3 73.7 52.1 66 52.1 C 58.3 52.1 52.1 58.3 52.1 66 C 52.1 73.2 57.6 79.3 64.8 79.9 C 65.2 79.9 65.6 80 66 80 C 66.4 80 66.8 80 67.2 79.9 C 74.4 79.2 79.9 73.2 79.9 66 Z M 72.3 75.2 C 70.8 76.4 68.9 77.2 66.9 77.4 L 65.1 77.4 C 63.1 77.2 61.3 76.5 59.7 75.2 L 59.7 75.1 C 60.5 72.9 61.8 70.8 63.4 69.2 L 64.2 68.4 C 64.7 67.9 64.7 67.1 64.2 66.6 C 63.2 65.6 63.2 64 64.2 63 C 65.2 62 66.8 62 67.8 63 C 68.8 64 68.8 65.6 67.8 66.6 C 67.3 67.1 67.3 67.9 67.8 68.4 L 68.6 69.2 C 70.3 70.8 71.6 72.8 72.3 75.2 Z M 70.4 67.3 C 71.8 64.9 71 61.8 68.6 60.3 C 66.2 58.9 63.1 59.7 61.7 62.1 C 60.8 63.7 60.8 65.7 61.7 67.2 C 59.9 69 58.5 71.1 57.6 73.5 C 53.4 68.8 53.7 61.6 58.4 57.4 C 63.1 53.2 70.3 53.5 74.5 58.2 C 78.4 62.5 78.4 69.1 74.5 73.5 C 73.6 71.3 72.2 69.1 70.4 67.3 Z"
            fill="#ffffff"
            stroke-width="1"/>
        <path
            id="path_2"
            d="M 41.9 48.3 C 45.4 48.3 48.2 45.5 48.2 42 C 48.2 38.5 45.4 35.7 41.9 35.7 C 38.4 35.7 35.6 38.5 35.6 42 C 35.6 45.4 38.4 48.3 41.9 48.3 Z M 41.9 38.1 C 44 38.1 45.7 39.8 45.7 41.9 C 45.7 44 44 45.7 41.9 45.7 C 39.8 45.7 38.1 44 38.1 41.9 C 38.1 39.8 39.8 38.1 41.9 38.1 Z M 36.9 96.4 L 47 96.4 C 47.7 96.4 48.3 95.8 48.3 95.1 L 48.3 85 C 48.3 84.3 47.7 83.7 47 83.7 L 36.9 83.7 C 36.2 83.7 35.6 84.3 35.6 85 L 35.6 95.1 C 35.6 95.8 36.2 96.4 36.9 96.4 Z M 38.1 86.3 L 45.7 86.3 L 45.7 93.9 L 38.1 93.9 L 38.1 86.3 Z M 91.2 36.2 C 90.8 35.6 90 35.4 89.4 35.8 C 89.3 35.9 89.1 36 89 36.2 L 83.9 45.1 C 83.6 45.7 83.8 46.5 84.4 46.8 C 84.6 46.9 84.8 47 85 47 L 95.1 47 C 95.8 47 96.4 46.4 96.4 45.7 C 96.4 45.5 96.3 45.3 96.2 45.1 L 91.2 36.2 Z M 87.2 44.5 L 90.1 39.5 L 93 44.5 L 87.2 44.5 Z M 90.1 104 C 97.8 104 104 97.8 104 90.1 C 104 82.4 97.8 76.2 90.1 76.2 C 86.8 76.2 83.7 77.3 81.2 79.4 L 78.3 76.5 L 76.5 78.3 L 79.4 81.2 C 74.5 87.1 75.3 95.9 81.2 100.8 C 83.6 102.9 86.8 104 90.1 104 Z M 90.1 78.7 C 96.4 78.7 101.5 83.8 101.5 90.1 C 101.5 96.4 96.4 101.5 90.1 101.5 C 83.8 101.5 78.7 96.4 78.7 90.1 C 78.7 83.8 83.8 78.7 90.1 78.7 Z"
            fill="#ffffff"
            stroke-width="1"/>
        <path
            id="path_3"
            d="M 89.3 97.4 C 89.8 97.7 90.4 97.7 90.8 97.4 L 95.9 93.6 C 96.2 93.4 96.4 93 96.4 92.6 L 96.4 87.5 C 96.4 87.1 96.2 86.7 95.9 86.5 L 90.8 82.7 C 90.3 82.4 89.7 82.4 89.3 82.7 L 84.2 86.5 C 83.9 86.7 83.7 87.1 83.7 87.5 L 83.7 92.6 C 83.7 93 83.9 93.4 84.2 93.6 L 89.3 97.4 Z M 86.3 88.2 L 90.1 85.4 L 93.9 88.2 L 93.9 92 L 90.1 94.8 L 86.3 92 L 86.3 88.2 Z M 38.1 59.7 L 40.6 59.7 L 40.6 62.2 L 38.1 62.2 Z M 38.1 64.7 L 40.6 64.7 L 40.6 67.2 L 38.1 67.2 Z M 38.1 69.8 L 40.6 69.8 L 40.6 72.3 L 38.1 72.3 Z M 95.1 59.7 L 97.6 59.7 L 97.6 62.2 L 95.1 62.2 Z M 95.1 64.7 L 97.6 64.7 L 97.6 67.2 L 95.1 67.2 Z M 95.1 69.8 L 97.6 69.8 L 97.6 72.3 L 95.1 72.3 Z M 59.7 34.3 L 62.2 34.3 L 62.2 36.8 L 59.7 36.8 Z M 64.7 34.3 L 67.2 34.3 L 67.2 36.8 L 64.7 36.8 Z M 69.8 34.3 L 72.3 34.3 L 72.3 36.8 L 69.8 36.8 Z M 59.7 95.1 L 62.2 95.1 L 62.2 97.6 L 59.7 97.6 Z M 64.7 95.1 L 67.2 95.1 L 67.2 97.6 L 64.7 97.6 Z M 69.8 95.1 L 72.3 95.1 L 72.3 97.6 L 69.8 97.6 Z M 90.1 28 C 82.4 28 76.2 34.2 76.2 41.9 C 76.2 44.5 76.9 47 78.3 49.2 L 77.5 54.4 C 77.4 55.1 77.9 55.7 78.6 55.8 L 79.1 55.8 L 84.6 54.6 C 86.4 55.4 88.3 55.8 90.2 55.8 C 97.9 55.8 104.1 49.6 104.1 41.9 C 104.1 34.2 97.8 28 90.1 28 Z M 90.1 53.3 C 88.4 53.3 86.7 52.9 85.2 52.2 C 85 52.1 84.8 52.1 84.6 52.1 L 84.3 52.1 L 80.2 53 L 80.8 49.2 C 80.8 48.9 80.8 48.6 80.6 48.3 C 77.1 43 78.5 36 83.7 32.5 C 89 29 96 30.4 99.5 35.6 C 103 40.8 101.6 47.9 96.4 51.4 C 94.5 52.7 92.3 53.3 90.1 53.3 Z"
            fill="#ffffff"
            stroke-width="1"/>
    </g>
</svg>
