<svg
    xmlns="http://www.w3.org/2000/svg"
    viewBox="0 0 128 128"
    id="vector">
    <path
        id="path"
        d="M 64 0 C 47.033 0 30.743 6.747 18.745 18.745 C 6.747 30.743 0 47.033 0 64 C 0 80.967 6.747 97.257 18.745 109.255 C 30.743 121.253 47.033 128 64 128 C 80.967 128 97.257 121.253 109.255 109.255 C 121.253 97.257 128 80.967 128 64 C 128 47.033 121.253 30.743 109.255 18.745 C 97.257 6.747 80.967 0 64 0 Z"
        fill="#e5008c"
        stroke-width="1"/>
    <path
        id="path_1"
        d="M 69.5 37.7 C 68.8 36.1 66.8 35.3 65.2 36.1 L 60.9 38.1 C 61.8 38.6 62.4 39.5 62.5 40.5 C 62.6 41.2 63.2 41.7 63.9 41.7 C 64.6 41.7 65.1 41.2 65.3 40.7 C 65.9 38.8 67.8 37.7 69.8 38 C 69.6 37.9 69.6 37.8 69.5 37.7 Z M 92.9 58.9 L 76.5 58.9 L 76.5 67.5 C 76.5 67.9 76.5 68.2 76.4 68.6 L 95 68.6 L 95 61 C 95 59.9 94 58.9 92.9 58.9 Z M 84.2 64.8 C 83.3 64.8 82.6 64.1 82.6 63.2 C 82.6 62.3 83.3 61.6 84.2 61.6 C 85.1 61.6 85.8 62.3 85.8 63.2 C 85.7 64.1 85.1 64.8 84.2 64.8 Z M 90 65.1 C 89 65.1 88.1 64.2 88.1 63.2 C 88.1 62.2 89 61.3 90 61.3 C 91 61.3 91.9 62.2 91.9 63.2 C 92 64.3 91.2 65.1 90 65.1 Z M 74.4 71 C 73.8 71.4 73.2 71.5 72.4 71.5 L 56.9 71.6 L 56.9 98 C 56.9 99.1 57.9 100.1 59 100.1 L 92.9 100.1 C 94 100.1 95 99.1 95 98 L 95 71 L 74.4 71 Z M 82.4 91.9 C 78.9 95.4 73.2 95.4 69.6 91.9 C 66.1 88.4 66.1 82.7 69.6 79.1 C 73.1 75.6 78.8 75.6 82.4 79.1 C 85.8 82.7 85.8 88.4 82.4 91.9 Z"
        fill="#ffffff"
        stroke-width="1"/>
    <path
        id="path_2"
        d="M 71.4 81.3 C 69.2 83.7 69.3 87.4 71.6 89.7 C 74 92.1 77.7 92.1 80 89.9 L 71.4 81.3 Z M 79.5 47.9 L 73.3 42.2 L 69.2 41 C 68.7 40.9 68.1 41.1 68 41.6 C 67.4 43.3 65.8 44.6 63.8 44.6 C 63.2 44.6 62.6 44.5 61.9 44.2 C 61.9 45.9 61.2 47.8 59.7 49 L 54.2 53.3 L 54.4 67.4 C 54.4 68 54.9 68.5 55.5 68.5 L 72.5 68.4 C 73.1 68.4 73.6 67.9 73.6 67.3 L 73.5 50.9 L 75.5 52.9 C 76 53.4 76.7 53.3 77.1 52.8 L 79.7 49 C 80 48.7 80 48.2 79.5 47.9 Z"
        fill="#ffffff"
        stroke-width="1"/>
    <path
        id="path_3"
        d="M 58.7 42.4 C 57.6 40.9 55.5 40.7 54 41.8 L 46.3 48 L 40.2 42.9 L 45.3 45.3 C 46.9 43.9 45.8 44.8 51.1 40.7 L 44.5 38.6 C 43.9 38.4 43.3 38.4 42.6 38.2 C 41.5 38.1 38.9 38 33.2 37.6 C 30.5 37.4 28.1 39.5 28 42.2 L 26.4 67.2 L 26.3 96.2 C 26.3 98.4 28 100.2 30.3 100.2 C 32.5 100.2 34.3 98.5 34.3 96.2 C 34.4 65.4 34.4 67.4 34.3 67.1 L 36.5 67.1 L 41.3 79.9 L 39.9 96 C 39.8 98.2 41.4 100.1 43.5 100.2 C 45.7 100.3 47.6 98.7 47.7 96.6 L 49.2 79.6 C 49.2 79 49.2 78.5 49 77.9 L 44.9 67 L 45.5 58.8 C 44.3 58.7 43.1 58.1 42.4 56.9 L 36 48.1 L 44.2 54.9 C 45.4 55.9 47.2 55.9 48.4 54.9 L 58.2 47.1 C 59.4 45.9 59.7 43.9 58.7 42.4 Z M 39.6 20.8 C 38.059 20.8 36.556 21.288 35.309 22.194 C 34.062 23.1 33.134 24.378 32.657 25.844 C 32.181 27.31 32.181 28.89 32.657 30.356 C 33.134 31.822 34.062 33.1 35.309 34.006 C 36.556 34.912 38.059 35.4 39.6 35.4 C 41.535 35.4 43.393 34.63 44.762 33.262 C 46.13 31.893 46.9 30.035 46.9 28.1 C 46.9 26.165 46.13 24.307 44.762 22.938 C 43.393 21.57 41.535 20.8 39.6 20.8 Z M 77.5 35.1 L 76.1 34.7 C 75.9 34.6 75.6 34.3 75.5 34.1 L 75.1 32.7 C 75 32.5 74.7 32.5 74.6 32.7 L 74.2 34.1 C 74.1 34.3 73.8 34.6 73.6 34.7 L 72.2 35.1 C 72 35.2 72 35.5 72.2 35.6 L 73.6 36 C 73.8 36.1 74.1 36.4 74.2 36.6 L 74.6 38 C 74.7 38.2 75 38.2 75.1 38 L 75.5 36.6 C 75.6 36.4 75.9 36.1 76.1 36 L 77.5 35.6 C 77.8 35.4 77.8 35.2 77.5 35.1 Z M 71.1 29.4 L 69.8 29 C 69.6 28.9 69.3 28.8 69.3 28.5 L 69 27.3 C 69 27.1 68.6 27.1 68.6 27.3 L 68.2 28.5 C 68.1 28.7 68 29 67.6 29.1 L 66.4 29.5 C 66.2 29.5 66.2 29.9 66.4 29.9 L 67.6 30.3 C 67.8 30.3 68.1 30.4 68.2 30.8 L 68.6 32 C 68.6 32.2 69 32.2 69 32 L 69.4 30.8 C 69.5 30.6 69.6 30.3 70 30.2 L 71.2 29.8 C 71.3 29.7 71.3 29.4 71.1 29.4 Z M 75.3 24.5 L 74.4 24.3 C 74.2 24.3 74 24.1 74 23.9 L 73.8 23 C 73.8 22.9 73.6 22.9 73.6 23 L 73.4 23.9 C 73.4 24.1 73.2 24.3 73 24.3 L 71.9 24.5 C 71.8 24.5 71.8 24.7 71.9 24.7 L 72.8 24.9 C 73 24.9 73.2 25.1 73.2 25.3 L 73.4 26.2 C 73.4 26.3 73.6 26.3 73.6 26.2 L 73.8 25.3 C 73.8 25.1 74 24.9 74.2 24.9 L 75.1 24.7 C 75.5 24.8 75.5 24.7 75.3 24.5 Z"
        fill="#ffffff"
        stroke-width="1"/>
</svg>
