<svg
    xmlns="http://www.w3.org/2000/svg"
    viewBox="0 0 128 128"
    id="vector">
    <path
        id="path"
        d="M 64 0 C 47.033 0 30.743 6.747 18.745 18.745 C 6.747 30.743 0 47.033 0 64 C 0 80.967 6.747 97.257 18.745 109.255 C 30.743 121.253 47.033 128 64 128 C 80.967 128 97.257 121.253 109.255 109.255 C 121.253 97.257 128 80.967 128 64 C 128 47.033 121.253 30.743 109.255 18.745 C 97.257 6.747 80.967 0 64 0 Z"
        fill="#2aaadc"
        stroke-width="1"/>
    <g id="group">
        <path
            id="path_1"
            d="M 64.9 89.1 L 62 89.1 L 61.6 88.6 L 59.2 94.4 L 67.6 94.4 L 65.2 88.6 L 64.9 89.1 Z M 98.4 76.5 C 96.1 73.7 92.9 71.9 89.3 71.4 L 82.7 70.3 L 73 86.1 L 69.8 83.1 L 68.6 84.5 L 72.6 94.2 L 102 94.2 L 102 86.1 C 102 82.8 100.7 79.3 98.4 76.5 Z M 54.5 68.3 L 50 71.2 L 54.9 79.3 L 60.2 74.4 L 54.5 68.3 Z M 57.4 83.1 L 54.2 86.1 L 44.5 70.3 L 37.9 71.4 C 34.4 72 31.2 73.8 28.8 76.5 C 26.5 79.3 25.2 82.8 25.2 86.2 L 25.2 94.4 L 54.7 94.4 L 58.7 84.7 L 57.4 83.1 Z M 60.6 80.1 L 61.1 80.7 L 63.5 83.8 L 65.9 80.7 L 66.4 80.1 L 63.5 77.5 L 60.6 80.1 Z M 66.6 74.3 L 71.9 79.2 L 76.8 71.1 L 72.3 68.2 L 66.6 74.3 Z M 44.5 34.4 L 82.5 34.4 L 83.1 33.4 C 83.8 32.3 84.1 31 83.7 29.7 C 83.3 28.5 82.5 27.4 81.4 26.8 L 65.5 18.7 C 64.2 18 62.6 18 61.3 18.7 L 45.5 26.8 C 44.3 27.4 43.5 28.5 43.2 29.7 C 42.8 30.9 43.1 32.3 43.8 33.4 L 44.5 34.4 Z M 63.5 26.7 C 64.7 26.7 65.8 27.7 65.8 29 C 65.8 30.2 64.8 31.3 63.5 31.3 C 62.3 31.3 61.2 30.3 61.2 29 C 61.2 27.8 62.2 26.7 63.5 26.7 Z M 81.3 47.4 C 78.9 50.2 75.3 52 71.3 52 L 55.7 52 C 51.7 52 48.1 50.2 45.7 47.4 L 45.7 50.2 C 45.7 55.9 48.3 61 52.6 64.3 C 53.2 64.8 53.9 65.3 54.5 65.6 C 56.2 66.6 58 67.3 59.9 67.6 L 63.4 71.2 L 66.9 67.6 C 68.8 67.2 70.6 66.5 72.3 65.6 C 73 65.2 73.6 64.8 74.2 64.3 C 78.4 61.1 81.1 56 81.1 50.2 L 81.1 47.4 L 81.3 47.4 Z"
            fill="#000000"
            stroke-width="1"/>
        <path
            id="path_2"
            d="M 55.7 47.5 L 71.2 47.5 C 75.3 47.5 78.7 44.7 79.6 41 C 79.8 40.3 79.8 39.6 79.8 38.7 L 47 38.7 C 47 39.4 47.1 40.3 47.2 41 C 48.3 44.7 51.7 47.5 55.7 47.5 Z"
            fill="#000000"
            stroke-width="1"/>
    </g>
    <path
        id="path_3"
        d="M 64 0 C 47.033 0 30.743 6.747 18.745 18.745 C 6.747 30.743 0 47.033 0 64 C 0 80.967 6.747 97.257 18.745 109.255 C 30.743 121.253 47.033 128 64 128 C 80.967 128 97.257 121.253 109.255 109.255 C 121.253 97.257 128 80.967 128 64 C 128 47.033 121.253 30.743 109.255 18.745 C 97.257 6.747 80.967 0 64 0 Z"
        fill="#e5008c"
        stroke-width="1"/>
    <path
        id="path_4"
        d="M 57.1 46.2 L 57.1 38 C 57.1 37.2 56.5 36.6 55.7 36.6 L 39.2 36.6 C 38.4 36.6 37.8 37.2 37.8 38 L 37.8 46.2 C 37.8 51.5 42.1 55.8 47.4 55.8 C 52.8 55.8 57.1 51.5 57.1 46.2 Z M 42 57.3 L 42 59.7 C 42.3 60.3 43.6 62.7 47.6 62.7 C 51.6 62.7 52.8 60.3 53.2 59.7 L 53.2 57.3 C 51.6 58.2 49.7 58.6 47.6 58.6 C 45.5 58.6 43.6 58.1 42 57.3 Z"
        fill="#ffffff"
        stroke-width="1"/>
    <path
        id="path_5"
        d="M 30.4 61.4 L 39.1 59 L 39.1 55.5 C 36.6 53.2 34.9 49.9 34.9 46.3 L 34.9 38 C 34.9 35.7 36.8 33.8 39.1 33.8 L 55.7 33.8 C 58 33.8 59.9 35.7 59.9 38 L 59.9 46.2 C 59.9 49.9 58.3 53.2 55.7 55.4 L 55.7 59 L 64.4 61.4 C 66.2 61.3 67.7 60.1 68.3 58.5 L 68.8 57.1 C 65.1 56.2 62.5 52.9 62.5 49 L 62.5 35.2 C 62.5 26.8 55.7 20 47.3 20 C 38.9 20 32.1 26.8 32.1 35.2 L 32.1 49 C 32.1 52.9 29.4 56.2 25.8 57.1 L 26.3 58.5 C 27.2 60 28.7 61.1 30.4 61.4 Z M 47.4 65.6 C 42.8 65.6 40.7 63.2 39.8 61.7 L 30.8 64.1 L 30.8 64.2 L 30.5 64.2 L 30.2 64.3 C 27.8 64.9 25.9 66.8 25.3 69.2 L 22.8 79.3 L 58.2 79.3 L 58.2 66.9 C 58.2 65.3 59.2 63.9 60.5 63.2 L 54.8 61.7 C 54.2 63.1 52 65.6 47.4 65.6 Z M 83.4 60 L 91.6 60 L 91.6 62.8 L 83.4 62.8 L 83.4 60 Z M 94.4 65.6 L 62.6 65.6 C 61.8 65.6 61.2 66.2 61.2 67 L 61.2 73.8 L 69.4 73.8 L 69.4 68.2 L 87.4 68.2 L 87.4 83.4 L 95.6 83.4 L 95.6 66.8 C 95.8 66.1 95.1 65.6 94.4 65.6 Z"
        fill="#ffffff"
        stroke-width="1"/>
    <path
        id="path_6"
        d="M 61.2 76.6 L 69.4 76.6 L 69.4 79.4 L 61.2 79.4 L 61.2 76.6 Z M 87.4 91.7 L 62.6 91.7 C 61.8 91.7 61.2 92.3 61.2 93.1 L 61.2 94.5 L 64 94.5 L 64 97.3 L 61.2 97.3 L 61.2 100.1 L 95.6 100.1 L 95.6 97.3 L 66.8 97.3 L 66.8 94.5 L 95.8 94.5 L 95.8 86.3 L 87.6 86.3 L 87.6 91.7 L 87.4 91.7 Z M 90.2 89 L 93 89 L 93 91.8 L 90.2 91.8 L 90.2 89 Z M 101.2 65.6 L 101.2 68.4 L 98.4 68.4 L 98.4 76.6 L 101.2 76.6 L 101.2 79.4 L 104 79.4 L 104 65.6 L 101.2 65.6 Z"
        fill="#ffffff"
        stroke-width="1"/>
</svg>
