<svg
    xmlns="http://www.w3.org/2000/svg"
    viewBox="0 0 85 85"
    id="vector">
    <path
        id="path"
        d="M 42.5 0 C 31.233 0 20.415 4.481 12.448 12.448 C 4.481 20.415 0 31.233 0 42.5 C 0 53.767 4.481 64.585 12.448 72.552 C 20.415 80.519 31.233 85 42.5 85 C 53.767 85 64.585 80.519 72.552 72.552 C 80.519 64.585 85 53.767 85 42.5 C 85 31.233 80.519 20.415 72.552 12.448 C 64.585 4.481 53.767 0 42.5 0 Z"
        fill="#e5008c"
        stroke-width="1"/>
    <path
        id="path_1"
        d="M 49.4 15.2 L 49.4 18.5 C 49.4 19.3 49 19.7 48.4 19.7 C 47.8 19.7 47.4 19.3 47.4 18.6 L 47.4 16.3 C 47.4 15.6 47.7 14.7 47.3 14.2 C 46.9 13.6 46 13.6 45.3 13.4 C 44.9 13.3 44.8 13.1 44.7 12.7 C 44.7 12 44.4 11.7 43.7 11.7 L 41.3 11.7 C 40.6 11.7 40.3 12 40.3 12.7 C 40.3 13.1 40.2 13.2 39.8 13.3 C 39.2 13.4 38.7 13.6 38.2 13.8 C 37.8 13.9 37.6 14.2 37.6 14.7 L 37.6 18.7 C 37.6 19.4 37.2 19.8 36.6 19.8 C 36 19.8 35.6 19.4 35.6 18.7 L 35.6 15.9 C 35.6 15.7 35.7 15.5 35.5 15.4 C 35.3 15.3 35.2 15.5 35 15.6 C 32.3 17.7 30.5 20.4 30 23.7 C 29.8 24.9 29.6 25.8 28.5 26.4 C 28 26.7 28 27.2 28.3 27.6 C 28.6 28.2 29 28.7 29.6 28.9 C 30.8 29.4 31.2 30.3 31.2 31.5 L 31.2 31.7 C 31.3 32.2 31.3 32.5 30.8 32.8 C 30.3 33.2 30.1 33.8 30 34.4 C 29.8 35.5 30 36.6 30.5 37.5 C 31 38.6 31.7 39.7 32.7 40.5 C 33.8 41.4 34.3 42.7 34.9 44.1 C 36.7 48.4 39.2 50 43.5 49.6 C 45.7 49.4 47.4 48.4 48.7 46.6 C 49.3 45.7 49.8 44.6 50.3 43.6 C 50.8 42.5 51.2 41.4 52.1 40.6 C 53.2 39.6 54.2 38.3 54.7 36.8 C 55.1 35.5 55.3 34 54.3 33 C 53.6 32.3 53.6 31.7 53.8 31 C 53.9 30.8 53.9 30.5 53.9 30.2 C 53.9 29.8 54 29.6 54.4 29.4 C 55.2 29 56 28.5 56.6 27.7 C 57 27.1 57 26.7 56.4 26.2 C 56.2 26 56 25.8 55.7 25.7 C 55.2 25.4 55 25 55 24.4 C 54.8 21.9 53.9 19.7 52.4 17.8 C 51.5 16.9 50.6 16 49.4 15.2 Z M 42.7 61.1 L 28.7 61.1 C 28.1 61.1 27.9 61.3 27.9 61.9 L 27.9 65.7 C 27.9 66.3 28.1 66.5 28.7 66.6 C 32.9 67.2 37.2 67.4 41.5 67.5 C 44.5 67.6 47.5 67.4 50.5 67.2 C 52.5 67.1 54.6 66.8 56.6 66.6 C 57.3 66.5 57.5 66.3 57.5 65.6 C 57.4 64.4 57.5 63.2 57.5 62 C 57.5 61.1 57.5 61.1 56.6 61.1 L 42.7 61.1 Z M 42.5 57.7 L 51.4 57.7 C 52 57.7 52.2 57.5 52.2 56.9 C 52.2 54.1 52.1 51.3 52.2 48.4 C 52.2 47.3 51.4 47.4 50.8 47.1 C 50.2 46.7 50 47.3 49.8 47.6 C 48.1 49.6 46 51.1 43.3 51.3 C 40 51.6 37.4 50.2 35.3 47.8 C 34.5 46.9 34.5 46.9 33.4 47.3 C 32.9 47.5 32.7 47.7 32.7 48.3 L 32.7 56.8 C 32.7 57.4 32.9 57.6 33.5 57.6 C 36.5 57.7 39.5 57.7 42.5 57.7 Z M 29.3 53.5 L 29.3 49.7 C 29.3 49.3 29.2 49.1 28.8 49.3 C 27.2 50 25.6 50.6 24.3 51.8 C 20.8 54.9 19.5 59 19.3 63.6 C 19.3 64 19.5 64.2 19.9 64.4 C 21.2 65 22.6 65.4 24 65.7 C 24.5 65.8 24.5 65.6 24.5 65.2 L 24.5 61.2 C 24.5 60.6 24.6 60.1 24.9 59.6 C 25.7 58.2 27 57.7 28.5 57.7 C 29 57.7 29.2 57.6 29.2 57 C 29.3 55.8 29.3 54.7 29.3 53.5 Z M 55.7 53.5 L 55.7 56.5 C 55.7 57.8 55.7 57.8 57 57.8 C 59.5 57.8 61 59.3 61 61.7 L 61 65.1 C 61 65.4 61 65.7 61.5 65.6 C 62.8 65.3 64.1 64.9 65.3 64.3 C 65.6 64.2 65.8 63.9 65.8 63.6 C 65.8 62.9 65.8 62.2 65.7 61.5 C 65.2 58.6 64.3 55.8 62.4 53.4 C 60.8 51.3 58.6 50.3 56.3 49.3 C 55.8 49.1 55.9 49.4 55.9 49.7 C 55.7 51 55.7 52.2 55.7 53.5 Z M 52.2 34 C 52.4 34 52.5 33.9 52.6 33.8 C 53.3 33.2 53.6 33.3 53.9 34.2 C 54.4 35.6 53.9 36.8 53.2 38 C 52.7 38.8 52.1 39.6 51.4 40.2 C 50.5 41 50 41.9 49.7 42.9 C 49.4 43.7 49 44.6 48.6 45.4 C 47.1 48 44.6 49.2 41.7 48.8 C 39.5 48.5 38 47.4 36.9 45.5 C 36.4 44.7 36 43.8 35.7 42.9 C 35.2 41.4 34 40.4 33 39.2 C 31.9 38 31.1 36.5 31.2 34.7 C 31.2 34.5 31.3 34.3 31.3 34.1 C 31.6 33.2 31.9 33.1 32.7 33.8 C 32.6 33 32.5 32.4 32.4 31.7 C 32.3 31.3 32.3 30.9 32.3 30.5 C 32.3 30.2 32.4 30 32.8 30.1 C 36.6 31.2 40.5 31.3 44.3 31.2 C 47.1 31.1 49.9 30.9 52.7 30 C 53.3 29.8 53.2 30.1 53.2 30.5 C 52.8 31.9 52.5 32.9 52.2 34 Z M 38.8 35.9 C 39.5 36 39.7 36.7 40.2 37 C 40.2 36.1 39 35.2 37.9 35.3 C 36.8 35.4 35.7 36.2 35.8 37.1 C 36.2 36.6 36.5 36 37.3 35.9 C 37.1 36.5 37 36.9 37.5 37.3 C 37.8 37.5 38.1 37.5 38.4 37.3 C 39 36.9 38.9 36.4 38.8 35.9 Z M 49.2 37.1 C 49.2 36.9 49.3 36.9 49.3 36.8 C 49 36 47.9 35.3 47 35.3 C 46.1 35.3 45 36 44.7 36.7 C 44.7 36.8 44.6 36.9 44.7 37 C 44.9 37.1 44.9 36.9 45 36.8 C 45.3 36.4 45.6 36 46.2 35.9 C 46.1 36.4 45.9 36.9 46.4 37.2 C 46.7 37.4 47 37.4 47.3 37.3 C 47.9 37 47.7 36.4 47.7 35.9 C 48.4 36 48.7 36.6 49.2 37.1 Z M 50.1 34.7 C 49.9 34.2 49.6 33.9 49.2 33.7 C 48.1 33 46.9 33 45.7 33.4 C 45.3 33.5 44.6 33.7 44.8 34.2 C 45 34.8 45.6 34.4 46 34.3 C 47 33.9 48 33.7 49.1 34.2 C 49.3 34.3 49.6 34.5 50.1 34.7 Z M 34.9 34.7 C 36.6 33.7 37.4 33.6 39.1 34.3 C 39.2 34.4 39.4 34.4 39.5 34.4 C 39.8 34.5 40.1 34.5 40.2 34.2 C 40.3 33.9 40.1 33.7 39.8 33.6 C 38.8 33 37.7 33 36.5 33.3 C 36 33.5 35.3 33.9 34.9 34.7 Z M 42.4 45.8 C 43.3 45.8 44.1 45.6 44.7 45 C 44.8 44.9 45 44.7 44.8 44.5 C 44.6 44.3 44.5 44.5 44.4 44.6 C 43.3 45.6 41.8 45.6 40.7 44.6 C 40.6 44.5 40.5 44.3 40.3 44.4 C 40.1 44.6 40.3 44.8 40.4 44.9 C 40.9 45.5 41.6 45.7 42.4 45.8 Z M 42.9 22.4 L 44.3 22.4 C 44.8 22.4 44.9 22.6 44.7 23 C 44.2 23.8 43.8 24.6 43.3 25.5 C 42.5 26.8 41.8 28.2 41 29.5 C 40.9 29.7 40.8 30 40.5 29.9 C 40.2 29.8 40.4 29.5 40.4 29.3 C 40.7 28 41.1 26.8 41.5 25.5 C 41.6 25 41.6 24.8 41 24.9 L 40.5 24.9 C 39.5 24.9 39.5 24.9 39.7 23.9 C 40.2 22.2 40.7 20.5 41.1 18.7 C 41.2 18.2 41.5 18.1 41.9 18.1 L 44.7 18.1 C 45.5 18.1 45.5 18.2 45.1 18.9 C 44.4 20.1 43.7 21.2 42.9 22.4 Z"
        fill="#ffffff"
        stroke-width="1"/>
</svg>
