<svg
    xmlns="http://www.w3.org/2000/svg"
    viewBox="0 0 128 128"
    id="vector">
    <path
        id="path"
        d="M 64 0 C 47.033 0 30.743 6.747 18.745 18.745 C 6.747 30.743 0 47.033 0 64 C 0 80.967 6.747 97.257 18.745 109.255 C 30.743 121.253 47.033 128 64 128 C 80.967 128 97.257 121.253 109.255 109.255 C 121.253 97.257 128 80.967 128 64 C 128 47.033 121.253 30.743 109.255 18.745 C 97.257 6.747 80.967 0 64 0 Z"
        fill="#e5008c"
        stroke-width="1"/>
    <path
        id="path_1"
        d="M 60.9 69.4 C 60.2 69 59.2 69.4 58.8 70.1 L 58.6 70.6 C 58.2 71.3 58.6 72.3 59.3 72.7 C 59.5 72.8 59.8 72.8 59.9 72.8 C 60.5 72.8 61 72.4 61.3 71.9 L 61.5 71.4 C 61.9 70.8 61.6 69.8 60.9 69.4 Z M 43.4 60.5 C 42.8 59.9 41.8 59.9 41.2 60.5 C 40 61.7 37.9 61.7 36.5 60.5 C 35.9 59.9 34.9 59.9 34.3 60.5 C 33.7 61.1 33.7 62.1 34.3 62.7 C 35.5 63.9 37.1 64.6 38.8 64.6 C 40.5 64.6 42 64 43.3 62.7 C 44 62.1 44 61.1 43.4 60.5 Z"
        fill="#ffffff"
        stroke-width="1"/>
    <path
        id="path_2"
        d="M 95.7 28.1 C 90.3 22.7 81.3 22.7 75.9 28.1 C 74.2 27.2 72.4 26.5 70.5 25.9 C 64.1 23.9 59 24 58.5 24 C 50.2 24 42.8 27.6 39.4 33.2 C 38.9 33.9 38.5 34.7 38.3 35.6 C 36.7 37.1 29.5 44.6 29.5 55.2 C 29.5 62.3 26.2 66 24.1 67.5 C 23.4 68.1 23 69 23 70 C 23.1 71 23.6 71.9 24.5 72.2 C 25.2 72.6 26.1 73.1 27 73.4 C 27.7 73.8 28.7 74.3 29.2 74.5 L 29.2 77.3 C 29.2 77.7 29.1 78 29 78.4 L 28.6 79.4 C 28.1 80.6 28.2 82.1 29.1 83.2 L 29.1 83.6 C 29.1 84.6 29.6 85.6 30.3 86.2 L 30.3 88 C 30.3 91.8 33.5 95.1 37.4 95.1 L 42 95.1 C 42.9 95.1 43.5 94.4 43.5 93.6 C 43.5 92.9 42.8 92.1 42 92.1 L 37.4 92.1 C 35.2 92.1 33.4 90.4 33.4 88.1 L 33.4 85.4 C 33.4 84.8 33 84.2 32.4 84 L 32.3 84 C 32.2 84 32.2 83.9 32.2 83.8 L 32.2 82.9 C 32.2 82.5 32.1 82.2 31.8 81.9 L 31.6 81.5 C 31.4 81.3 31.4 80.9 31.5 80.6 L 31.9 79.6 C 32.1 78.9 32.4 78.1 32.4 77.4 L 32.4 74.1 C 32.4 72.6 30.9 71.9 28.3 70.6 C 27.7 70.2 26.9 70 26.3 69.6 C 28.8 67.6 32.6 63.2 32.6 55.1 C 32.6 49.3 35.2 44.5 37.4 41.4 C 37.5 44.1 38.4 47 39.9 49.7 C 43.9 57.1 50.8 60.2 56.4 62.7 C 61.7 65.1 64.7 66.5 64.7 69.6 C 64.7 71.8 64.2 73.6 63.1 74.6 C 61.9 75.8 60.3 75.7 60.3 75.7 C 59.8 75.7 59.3 75.9 58.9 76.3 C 58.5 76.7 58.5 77.3 58.7 77.8 C 58.7 77.9 59.8 81 62.3 84.1 C 65.2 88 69.2 90 73.6 90 L 77.8 102.1 C 78 102.7 78.7 103.1 79.3 103.1 C 79.4 103.1 79.7 103.1 79.8 103 C 80.7 102.8 81 101.9 80.8 101 L 76.7 89 C 84.4 84.9 89.8 78.5 92.4 70.4 C 94.5 64 94.5 56.8 92.8 49.9 C 93.8 49.3 94.7 48.7 95.4 47.8 C 101.1 42.4 101.1 33.5 95.7 28.1 Z M 89.6 69.6 C 87.1 77.2 81.9 83.1 74.5 86.9 C 70.8 87 67.4 85.5 64.7 82.3 C 63.6 80.9 62.8 79.7 62.3 78.6 C 63.2 78.4 64.2 77.9 65.1 77 C 66.8 75.4 67.7 72.9 67.7 69.7 C 67.7 64.5 62.7 62.3 57.5 59.9 C 52.1 57.4 46 54.7 42.5 48.3 C 40.4 44.2 39.8 40.4 41 37 C 41.2 36.3 41.6 35.5 42 34.9 C 44.8 30.2 51.2 27.2 58.5 27.2 C 58.5 27.2 63.5 27.1 69.4 28.9 C 77.3 31.4 83.1 36 86.7 42.6 C 91.3 50.9 92.3 61 89.6 69.6 Z M 92.1 46.9 C 91.4 44.9 90.6 42.9 89.5 41.1 C 86.9 36.4 83.3 32.6 78.7 29.7 C 83 26.1 89.5 26.4 93.4 30.3 C 97.6 34.5 97.6 41.4 93.4 45.8 C 93.1 46.2 92.6 46.5 92.1 46.9 Z"
        fill="#ffffff"
        stroke-width="1"/>
    <path
        id="path_3"
        d="M 62.7 96.4 L 57.9 88 L 57.7 82.3 C 57.6 77.5 53.9 73.6 49 73.1 C 45.5 72.9 42.1 74.7 40.6 77.9 L 40.5 78 C 38.5 82.2 39.9 87.4 43.8 89.9 L 48.6 93 L 53.9 102.2 C 54.1 102.7 54.8 102.9 55.3 102.9 C 55.5 102.9 55.8 102.8 56 102.7 C 56.7 102.3 57 101.3 56.6 100.6 L 52 92.5 L 53.9 91.4 L 55.8 90.3 L 60 97.7 C 60.4 98.4 61.4 98.7 62.1 98.3 C 62.9 98.1 63.1 97.2 62.7 96.4 Z M 50 90.3 L 45.7 87.5 C 43.1 85.8 42.1 82.3 43.5 79.5 L 43.6 79.4 C 44.5 77.5 46.4 76.3 48.6 76.3 L 49.1 76.3 C 52.3 76.5 54.8 79.1 54.9 82.4 L 55 87.6 L 50 90.3 Z M 52.3 33 C 51.9 32.3 51.1 31.9 50.3 32.1 C 47.6 33.2 45.6 35.2 44.7 37.7 C 43.8 40.1 44.2 42.8 45.6 45.5 C 45.8 46 46.5 46.4 47 46.4 C 47.2 46.4 47.5 46.4 47.7 46.3 C 48.4 45.9 48.7 44.9 48.3 44.2 C 47.3 42.2 47.1 40.5 47.6 38.9 C 48.1 37.3 49.5 36.1 51.4 35.2 C 52.3 34.8 52.7 33.9 52.3 33 Z M 56.2 31.2 C 55.2 31.2 54.6 31.9 54.6 32.8 C 54.6 33.7 55.3 34.3 56.1 34.3 L 56.2 34.3 C 56.9 34.2 57.7 33.6 57.7 32.7 C 57.7 31.8 56.9 31.2 56.2 31.2 Z"
        fill="#ffffff"
        stroke-width="1"/>
</svg>
