<svg width="28" height="28" viewBox="0 0 28 28" fill="none" xmlns="http://www.w3.org/2000/svg">
<path d="M4.6665 24.5V16.3333" stroke="#7E8289" stroke-width="2" stroke-linecap="round" stroke-linejoin="round"/>
<path d="M4.6665 11.6667V3.5" stroke="#7E8289" stroke-width="2" stroke-linecap="round" stroke-linejoin="round"/>
<path d="M14 24.5V14" stroke="#7E8289" stroke-width="2" stroke-linecap="round" stroke-linejoin="round"/>
<path d="M14 9.33333V3.5" stroke="#7E8289" stroke-width="2" stroke-linecap="round" stroke-linejoin="round"/>
<path d="M23.3335 24.5V18.6667" stroke="#7E8289" stroke-width="2" stroke-linecap="round" stroke-linejoin="round"/>
<path d="M23.3335 14V3.5" stroke="#7E8289" stroke-width="2" stroke-linecap="round" stroke-linejoin="round"/>
<path d="M1.1665 16.3333H8.1665" stroke="#7E8289" stroke-width="2" stroke-linecap="round" stroke-linejoin="round"/>
<path d="M10.5 9.33334H17.5" stroke="#7E8289" stroke-width="2" stroke-linecap="round" stroke-linejoin="round"/>
<path d="M19.8335 18.6667H26.8335" stroke="#7E8289" stroke-width="2" stroke-linecap="round" stroke-linejoin="round"/>
</svg>
